{
  "MAX_MIN_version": 20230328,
  "ComandsList": [
    [
      {
        "IdComand": 109,
        "Name": "ask DIO all channels",
        "isInitial": false,
        "SubAdress": 4,
        "IsWrite": false,
        "PartType": 2
      }
    ]
  ],
  "COMTmrSettings": [
    {
      "Type": 1,
      "period": 1000,
      "start_delay": 500
    }
  ],
  "COMSettings": [
    {
      "Name": "COM12",
      "Baudrate": 115200,
      "Parity": 0,
      "Databits": 8,
      "Stopbits": 1,
      "Is_handshake": false,
      "Readtimeout": 500,
      "Writetimeout": 500,
      "EndLine": "\r",
      "DtrEnable": false,
      "RtsEnable": false
    }
  ]  
}